%YAML 1.1
%TAG !u! tag:unity3d.com,2011:
--- !u!1 &339889784731166785
GameObject:
  m_ObjectHideFlags: 0
  m_CorrespondingSourceObject: {fileID: 0}
  m_PrefabInstance: {fileID: 0}
  m_PrefabAsset: {fileID: 0}
  serializedVersion: 6
  m_Component:
  - component: {fileID: 339889784730743905}
  - component: {fileID: 339889784729941057}
  - component: {fileID: 339889784728974977}
  m_Layer: 2
  m_Name: Egg_Red
  m_TagString: Untagged
  m_Icon: {fileID: 0}
  m_NavMeshLayer: 0
  m_StaticEditorFlags: 0
  m_IsActive: 1
--- !u!4 &339889784730743905
Transform:
  m_ObjectHideFlags: 0
  m_CorrespondingSourceObject: {fileID: 0}
  m_PrefabInstance: {fileID: 0}
  m_PrefabAsset: {fileID: 0}
  m_GameObject: {fileID: 339889784731166785}
  m_LocalRotation: {x: 0, y: -0, z: -0, w: 1}
  m_LocalPosition: {x: -0, y: 0, z: 0}
  m_LocalScale: {x: 1, y: 1, z: 1}
  m_Children: []
  m_Father: {fileID: 339889784730743911}
  m_RootOrder: 2
  m_LocalEulerAnglesHint: {x: 0, y: 0, z: 0}
--- !u!33 &339889784729941057
MeshFilter:
  m_ObjectHideFlags: 0
  m_CorrespondingSourceObject: {fileID: 0}
  m_PrefabInstance: {fileID: 0}
  m_PrefabAsset: {fileID: 0}
  m_GameObject: {fileID: 339889784731166785}
  m_Mesh: {fileID: 4300000, guid: 9e96e26c2a9fc02499f837273208e745, type: 3}
--- !u!23 &339889784728974977
MeshRenderer:
  m_ObjectHideFlags: 0
  m_CorrespondingSourceObject: {fileID: 0}
  m_PrefabInstance: {fileID: 0}
  m_PrefabAsset: {fileID: 0}
  m_GameObject: {fileID: 339889784731166785}
  m_Enabled: 1
  m_CastShadows: 1
  m_ReceiveShadows: 1
  m_DynamicOccludee: 1
  m_MotionVectors: 1
  m_LightProbeUsage: 1
  m_ReflectionProbeUsage: 1
  m_RayTracingMode: 2
  m_RenderingLayerMask: 1
  m_RendererPriority: 0
  m_Materials:
  - {fileID: 2100000, guid: 0e5810a7a4f8f084e8f664232fb6ea63, type: 2}
  m_StaticBatchInfo:
    firstSubMesh: 0
    subMeshCount: 0
  m_StaticBatchRoot: {fileID: 0}
  m_ProbeAnchor: {fileID: 0}
  m_LightProbeVolumeOverride: {fileID: 0}
  m_ScaleInLightmap: 1
  m_ReceiveGI: 1
  m_PreserveUVs: 0
  m_IgnoreNormalsForChartDetection: 0
  m_ImportantGI: 0
  m_StitchLightmapSeams: 0
  m_SelectedEditorRenderState: 3
  m_MinimumChartSize: 4
  m_AutoUVMaxDistance: 0.5
  m_AutoUVMaxAngle: 89
  m_LightmapParameters: {fileID: 0}
  m_SortingLayerID: 0
  m_SortingLayer: 0
  m_SortingOrder: 0
--- !u!1 &339889784731166787
GameObject:
  m_ObjectHideFlags: 0
  m_CorrespondingSourceObject: {fileID: 0}
  m_PrefabInstance: {fileID: 0}
  m_PrefabAsset: {fileID: 0}
  serializedVersion: 6
  m_Component:
  - component: {fileID: 339889784730743907}
  - component: {fileID: 339889784729941059}
  - component: {fileID: 339889784728974979}
  m_Layer: 2
  m_Name: Egg_Damaged_Red
  m_TagString: Untagged
  m_Icon: {fileID: 0}
  m_NavMeshLayer: 0
  m_StaticEditorFlags: 0
  m_IsActive: 0
--- !u!4 &339889784730743907
Transform:
  m_ObjectHideFlags: 0
  m_CorrespondingSourceObject: {fileID: 0}
  m_PrefabInstance: {fileID: 0}
  m_PrefabAsset: {fileID: 0}
  m_GameObject: {fileID: 339889784731166787}
  m_LocalRotation: {x: 0, y: -0, z: -0, w: 1}
  m_LocalPosition: {x: -0, y: 0, z: 0}
  m_LocalScale: {x: 1, y: 1, z: 1}
  m_Children: []
  m_Father: {fileID: 339889784730743911}
  m_RootOrder: 1
  m_LocalEulerAnglesHint: {x: 0, y: 0, z: 0}
--- !u!33 &339889784729941059
MeshFilter:
  m_ObjectHideFlags: 0
  m_CorrespondingSourceObject: {fileID: 0}
  m_PrefabInstance: {fileID: 0}
  m_PrefabAsset: {fileID: 0}
  m_GameObject: {fileID: 339889784731166787}
  m_Mesh: {fileID: 4300002, guid: 9e96e26c2a9fc02499f837273208e745, type: 3}
--- !u!23 &339889784728974979
MeshRenderer:
  m_ObjectHideFlags: 0
  m_CorrespondingSourceObject: {fileID: 0}
  m_PrefabInstance: {fileID: 0}
  m_PrefabAsset: {fileID: 0}
  m_GameObject: {fileID: 339889784731166787}
  m_Enabled: 1
  m_CastShadows: 1
  m_ReceiveShadows: 1
  m_DynamicOccludee: 1
  m_MotionVectors: 1
  m_LightProbeUsage: 1
  m_ReflectionProbeUsage: 1
  m_RayTracingMode: 2
  m_RenderingLayerMask: 1
  m_RendererPriority: 0
  m_Materials:
  - {fileID: 2100000, guid: 0e5810a7a4f8f084e8f664232fb6ea63, type: 2}
  m_StaticBatchInfo:
    firstSubMesh: 0
    subMeshCount: 0
  m_StaticBatchRoot: {fileID: 0}
  m_ProbeAnchor: {fileID: 0}
  m_LightProbeVolumeOverride: {fileID: 0}
  m_ScaleInLightmap: 1
  m_ReceiveGI: 1
  m_PreserveUVs: 0
  m_IgnoreNormalsForChartDetection: 0
  m_ImportantGI: 0
  m_StitchLightmapSeams: 0
  m_SelectedEditorRenderState: 3
  m_MinimumChartSize: 4
  m_AutoUVMaxDistance: 0.5
  m_AutoUVMaxAngle: 89
  m_LightmapParameters: {fileID: 0}
  m_SortingLayerID: 0
  m_SortingLayer: 0
  m_SortingOrder: 0
--- !u!1 &339889784731166791
GameObject:
  m_ObjectHideFlags: 0
  m_CorrespondingSourceObject: {fileID: 0}
  m_PrefabInstance: {fileID: 0}
  m_PrefabAsset: {fileID: 0}
  serializedVersion: 6
  m_Component:
  - component: {fileID: 339889784730743911}
  - component: {fileID: 4038992288912515631}
  - component: {fileID: 3306220783131068039}
  - component: {fileID: 5511211401861279190}
  - component: {fileID: 2202992717799345926}
  m_Layer: 2
  m_Name: Egg_Red
  m_TagString: Enemy
  m_Icon: {fileID: 0}
  m_NavMeshLayer: 0
  m_StaticEditorFlags: 0
  m_IsActive: 1
--- !u!4 &339889784730743911
Transform:
  m_ObjectHideFlags: 0
  m_CorrespondingSourceObject: {fileID: 0}
  m_PrefabInstance: {fileID: 0}
  m_PrefabAsset: {fileID: 0}
  m_GameObject: {fileID: 339889784731166791}
  m_LocalRotation: {x: 0, y: 0, z: 0, w: 1}
  m_LocalPosition: {x: 0, y: 0, z: 0}
  m_LocalScale: {x: 2, y: 2, z: 2}
  m_Children:
  - {fileID: 4839122350519880781}
  - {fileID: 339889784730743907}
  - {fileID: 339889784730743905}
  m_Father: {fileID: 0}
  m_RootOrder: 0
  m_LocalEulerAnglesHint: {x: 0, y: 0, z: 0}
--- !u!114 &4038992288912515631
MonoBehaviour:
  m_ObjectHideFlags: 0
  m_CorrespondingSourceObject: {fileID: 0}
  m_PrefabInstance: {fileID: 0}
  m_PrefabAsset: {fileID: 0}
  m_GameObject: {fileID: 339889784731166791}
  m_Enabled: 1
  m_EditorHideFlags: 0
  m_Script: {fileID: 11500000, guid: 7fa27eea06a143f499844c57ef0379d3, type: 3}
  m_Name: 
  m_EditorClassIdentifier: 
  enemyHealth: 20
  enemyDamage: 0
  ac: {fileID: 0}
  _full: {fileID: 339889784731166785}
  _damaged: {fileID: 339889784731166787}
  _particleSystem: {fileID: 4839122350519880782}
--- !u!136 &3306220783131068039
CapsuleCollider:
  m_ObjectHideFlags: 0
  m_CorrespondingSourceObject: {fileID: 0}
  m_PrefabInstance: {fileID: 0}
  m_PrefabAsset: {fileID: 0}
  m_GameObject: {fileID: 339889784731166791}
  m_Material: {fileID: 0}
  m_IsTrigger: 0
  m_Enabled: 1
  m_Radius: 1.052513
  m_Height: 2.3653922
  m_Direction: 1
  m_Center: {x: 0.00000011920929, y: 1.1607149, z: 0}
--- !u!54 &5511211401861279190
Rigidbody:
  m_ObjectHideFlags: 0
  m_CorrespondingSourceObject: {fileID: 0}
  m_PrefabInstance: {fileID: 0}
  m_PrefabAsset: {fileID: 0}
  m_GameObject: {fileID: 339889784731166791}
  serializedVersion: 2
  m_Mass: 1984.79
  m_Drag: 0
  m_AngularDrag: 0.05
  m_UseGravity: 1
  m_IsKinematic: 1
  m_Interpolate: 0
  m_Constraints: 126
  m_CollisionDetection: 0
--- !u!114 &2202992717799345926
MonoBehaviour:
  m_ObjectHideFlags: 0
  m_CorrespondingSourceObject: {fileID: 0}
  m_PrefabInstance: {fileID: 0}
  m_PrefabAsset: {fileID: 0}
  m_GameObject: {fileID: 339889784731166791}
  m_Enabled: 1
  m_EditorHideFlags: 0
  m_Script: {fileID: 11500000, guid: 425b3bb65dc61884493415333c741624, type: 3}
  m_Name: 
  m_EditorClassIdentifier: 
  enemy: {fileID: 7122654101855521591, guid: 91d4749f098c66442b36767a17342765, type: 3}
  currentEnemy: {fileID: 0}
  spawnRate: 10
  maxEnemies: 0
  spawnRange: 4
  maxDistance: 120
--- !u!1001 &4456871988960581466
PrefabInstance:
  m_ObjectHideFlags: 0
  serializedVersion: 2
  m_Modification:
    m_TransformParent: {fileID: 339889784730743911}
    m_Modifications:
    - target: {fileID: 9147366467137067797, guid: f07d2d7484b62c444a1afc522065f523,
        type: 3}
      propertyPath: m_Mesh
      value: 
      objectReference: {fileID: 4300000, guid: 9e900675724d80d4896df56e4fae64e9, type: 3}
    - target: {fileID: 9147366467137067797, guid: f07d2d7484b62c444a1afc522065f523,
        type: 3}
      propertyPath: m_Mesh1
      value: 
      objectReference: {fileID: 4300000, guid: fa9f3b3ca52ee3544a8bf022be47cc67, type: 3}
    - target: {fileID: 9147366467137067797, guid: f07d2d7484b62c444a1afc522065f523,
        type: 3}
      propertyPath: m_Mesh2
      value: 
      objectReference: {fileID: 4300000, guid: c49bf09e9c7ed5247ae614a6031d654c, type: 3}
    - target: {fileID: 9147366467137067799, guid: f07d2d7484b62c444a1afc522065f523,
        type: 3}
      propertyPath: m_RootOrder
      value: 0
      objectReference: {fileID: 0}
    - target: {fileID: 9147366467137067799, guid: f07d2d7484b62c444a1afc522065f523,
        type: 3}
      propertyPath: m_LocalPosition.x
      value: 0
      objectReference: {fileID: 0}
    - target: {fileID: 9147366467137067799, guid: f07d2d7484b62c444a1afc522065f523,
        type: 3}
      propertyPath: m_LocalPosition.y
      value: 2.136
      objectReference: {fileID: 0}
    - target: {fileID: 9147366467137067799, guid: f07d2d7484b62c444a1afc522065f523,
        type: 3}
      propertyPath: m_LocalPosition.z
      value: 0
      objectReference: {fileID: 0}
    - target: {fileID: 9147366467137067799, guid: f07d2d7484b62c444a1afc522065f523,
        type: 3}
      propertyPath: m_LocalRotation.w
      value: 0.7071068
      objectReference: {fileID: 0}
    - target: {fileID: 9147366467137067799, guid: f07d2d7484b62c444a1afc522065f523,
        type: 3}
      propertyPath: m_LocalRotation.x
      value: -0.7071068
      objectReference: {fileID: 0}
    - target: {fileID: 9147366467137067799, guid: f07d2d7484b62c444a1afc522065f523,
        type: 3}
      propertyPath: m_LocalRotation.y
      value: 0
      objectReference: {fileID: 0}
    - target: {fileID: 9147366467137067799, guid: f07d2d7484b62c444a1afc522065f523,
        type: 3}
      propertyPath: m_LocalRotation.z
      value: 0
      objectReference: {fileID: 0}
    - target: {fileID: 9147366467137067799, guid: f07d2d7484b62c444a1afc522065f523,
        type: 3}
      propertyPath: m_LocalEulerAnglesHint.x
      value: -90
      objectReference: {fileID: 0}
    - target: {fileID: 9147366467137067799, guid: f07d2d7484b62c444a1afc522065f523,
        type: 3}
      propertyPath: m_LocalEulerAnglesHint.y
      value: 0
      objectReference: {fileID: 0}
    - target: {fileID: 9147366467137067799, guid: f07d2d7484b62c444a1afc522065f523,
        type: 3}
      propertyPath: m_LocalEulerAnglesHint.z
      value: 0
      objectReference: {fileID: 0}
    - target: {fileID: 9147366467137067802, guid: f07d2d7484b62c444a1afc522065f523,
        type: 3}
      propertyPath: m_Name
      value: Egg_Particles_Shells
      objectReference: {fileID: 0}
    - target: {fileID: 9147366467137067802, guid: f07d2d7484b62c444a1afc522065f523,
        type: 3}
      propertyPath: m_Layer
      value: 2
      objectReference: {fileID: 0}
    - target: {fileID: 9147366467630307471, guid: f07d2d7484b62c444a1afc522065f523,
        type: 3}
      propertyPath: m_Layer
      value: 2
      objectReference: {fileID: 0}
    m_RemovedComponents: []
  m_SourcePrefab: {fileID: 100100000, guid: f07d2d7484b62c444a1afc522065f523, type: 3}
--- !u!4 &4839122350519880781 stripped
Transform:
  m_CorrespondingSourceObject: {fileID: 9147366467137067799, guid: f07d2d7484b62c444a1afc522065f523,
    type: 3}
  m_PrefabInstance: {fileID: 4456871988960581466}
  m_PrefabAsset: {fileID: 0}
--- !u!198 &4839122350519880782 stripped
ParticleSystem:
  m_CorrespondingSourceObject: {fileID: 9147366467137067796, guid: f07d2d7484b62c444a1afc522065f523,
    type: 3}
  m_PrefabInstance: {fileID: 4456871988960581466}
  m_PrefabAsset: {fileID: 0}
