%YAML 1.1
%TAG !u! tag:unity3d.com,2011:
--- !u!1 &1927246636466840000
GameObject:
  m_ObjectHideFlags: 0
  m_CorrespondingSourceObject: {fileID: 0}
  m_PrefabInstance: {fileID: 0}
  m_PrefabAsset: {fileID: 0}
  serializedVersion: 6
  m_Component:
  - component: {fileID: 1927246636466814432}
  - component: {fileID: 1927246636466044352}
  - component: {fileID: 1927246636464914176}
  m_Layer: 2
  m_Name: Egg_Green
  m_TagString: Untagged
  m_Icon: {fileID: 0}
  m_NavMeshLayer: 0
  m_StaticEditorFlags: 0
  m_IsActive: 1
--- !u!4 &1927246636466814432
Transform:
  m_ObjectHideFlags: 0
  m_CorrespondingSourceObject: {fileID: 0}
  m_PrefabInstance: {fileID: 0}
  m_PrefabAsset: {fileID: 0}
  m_GameObject: {fileID: 1927246636466840000}
  m_LocalRotation: {x: 0, y: -0, z: -0, w: 1}
  m_LocalPosition: {x: -0, y: 0, z: 0}
  m_LocalScale: {x: 1, y: 1, z: 1}
  m_Children: []
  m_Father: {fileID: 1927246636466814438}
  m_RootOrder: 2
  m_LocalEulerAnglesHint: {x: 0, y: 0, z: 0}
--- !u!33 &1927246636466044352
MeshFilter:
  m_ObjectHideFlags: 0
  m_CorrespondingSourceObject: {fileID: 0}
  m_PrefabInstance: {fileID: 0}
  m_PrefabAsset: {fileID: 0}
  m_GameObject: {fileID: 1927246636466840000}
  m_Mesh: {fileID: 4300000, guid: 05311192955388b4ba60a9ad1887d751, type: 3}
--- !u!23 &1927246636464914176
MeshRenderer:
  m_ObjectHideFlags: 0
  m_CorrespondingSourceObject: {fileID: 0}
  m_PrefabInstance: {fileID: 0}
  m_PrefabAsset: {fileID: 0}
  m_GameObject: {fileID: 1927246636466840000}
  m_Enabled: 1
  m_CastShadows: 1
  m_ReceiveShadows: 1
  m_DynamicOccludee: 1
  m_MotionVectors: 1
  m_LightProbeUsage: 1
  m_ReflectionProbeUsage: 1
  m_RayTracingMode: 2
  m_RenderingLayerMask: 1
  m_RendererPriority: 0
  m_Materials:
  - {fileID: 2100000, guid: 0e5810a7a4f8f084e8f664232fb6ea63, type: 2}
  m_StaticBatchInfo:
    firstSubMesh: 0
    subMeshCount: 0
  m_StaticBatchRoot: {fileID: 0}
  m_ProbeAnchor: {fileID: 0}
  m_LightProbeVolumeOverride: {fileID: 0}
  m_ScaleInLightmap: 1
  m_ReceiveGI: 1
  m_PreserveUVs: 0
  m_IgnoreNormalsForChartDetection: 0
  m_ImportantGI: 0
  m_StitchLightmapSeams: 0
  m_SelectedEditorRenderState: 3
  m_MinimumChartSize: 4
  m_AutoUVMaxDistance: 0.5
  m_AutoUVMaxAngle: 89
  m_LightmapParameters: {fileID: 0}
  m_SortingLayerID: 0
  m_SortingLayer: 0
  m_SortingOrder: 0
--- !u!1 &1927246636466840002
GameObject:
  m_ObjectHideFlags: 0
  m_CorrespondingSourceObject: {fileID: 0}
  m_PrefabInstance: {fileID: 0}
  m_PrefabAsset: {fileID: 0}
  serializedVersion: 6
  m_Component:
  - component: {fileID: 1927246636466814434}
  - component: {fileID: 1927246636466044354}
  - component: {fileID: 1927246636464914178}
  m_Layer: 2
  m_Name: Egg_Damaged_Green
  m_TagString: Untagged
  m_Icon: {fileID: 0}
  m_NavMeshLayer: 0
  m_StaticEditorFlags: 0
  m_IsActive: 0
--- !u!4 &1927246636466814434
Transform:
  m_ObjectHideFlags: 0
  m_CorrespondingSourceObject: {fileID: 0}
  m_PrefabInstance: {fileID: 0}
  m_PrefabAsset: {fileID: 0}
  m_GameObject: {fileID: 1927246636466840002}
  m_LocalRotation: {x: 0, y: -0, z: -0, w: 1}
  m_LocalPosition: {x: -0, y: 0, z: 0}
  m_LocalScale: {x: 1, y: 1, z: 1}
  m_Children: []
  m_Father: {fileID: 1927246636466814438}
  m_RootOrder: 1
  m_LocalEulerAnglesHint: {x: 0, y: 0, z: 0}
--- !u!33 &1927246636466044354
MeshFilter:
  m_ObjectHideFlags: 0
  m_CorrespondingSourceObject: {fileID: 0}
  m_PrefabInstance: {fileID: 0}
  m_PrefabAsset: {fileID: 0}
  m_GameObject: {fileID: 1927246636466840002}
  m_Mesh: {fileID: 4300002, guid: 05311192955388b4ba60a9ad1887d751, type: 3}
--- !u!23 &1927246636464914178
MeshRenderer:
  m_ObjectHideFlags: 0
  m_CorrespondingSourceObject: {fileID: 0}
  m_PrefabInstance: {fileID: 0}
  m_PrefabAsset: {fileID: 0}
  m_GameObject: {fileID: 1927246636466840002}
  m_Enabled: 1
  m_CastShadows: 1
  m_ReceiveShadows: 1
  m_DynamicOccludee: 1
  m_MotionVectors: 1
  m_LightProbeUsage: 1
  m_ReflectionProbeUsage: 1
  m_RayTracingMode: 2
  m_RenderingLayerMask: 1
  m_RendererPriority: 0
  m_Materials:
  - {fileID: 2100000, guid: 0e5810a7a4f8f084e8f664232fb6ea63, type: 2}
  m_StaticBatchInfo:
    firstSubMesh: 0
    subMeshCount: 0
  m_StaticBatchRoot: {fileID: 0}
  m_ProbeAnchor: {fileID: 0}
  m_LightProbeVolumeOverride: {fileID: 0}
  m_ScaleInLightmap: 1
  m_ReceiveGI: 1
  m_PreserveUVs: 0
  m_IgnoreNormalsForChartDetection: 0
  m_ImportantGI: 0
  m_StitchLightmapSeams: 0
  m_SelectedEditorRenderState: 3
  m_MinimumChartSize: 4
  m_AutoUVMaxDistance: 0.5
  m_AutoUVMaxAngle: 89
  m_LightmapParameters: {fileID: 0}
  m_SortingLayerID: 0
  m_SortingLayer: 0
  m_SortingOrder: 0
--- !u!1 &1927246636466840006
GameObject:
  m_ObjectHideFlags: 0
  m_CorrespondingSourceObject: {fileID: 0}
  m_PrefabInstance: {fileID: 0}
  m_PrefabAsset: {fileID: 0}
  serializedVersion: 6
  m_Component:
  - component: {fileID: 1927246636466814438}
  - component: {fileID: 876049672133166357}
  - component: {fileID: 4429767559582248549}
  - component: {fileID: 2293187726942398875}
  - component: {fileID: -7628254726804892160}
  m_Layer: 2
  m_Name: Egg_Green
  m_TagString: Enemy
  m_Icon: {fileID: 0}
  m_NavMeshLayer: 0
  m_StaticEditorFlags: 0
  m_IsActive: 1
--- !u!4 &1927246636466814438
Transform:
  m_ObjectHideFlags: 0
  m_CorrespondingSourceObject: {fileID: 0}
  m_PrefabInstance: {fileID: 0}
  m_PrefabAsset: {fileID: 0}
  m_GameObject: {fileID: 1927246636466840006}
  m_LocalRotation: {x: 0, y: 0, z: 0, w: 1}
  m_LocalPosition: {x: 0, y: 0, z: 0}
  m_LocalScale: {x: 2, y: 2, z: 2}
  m_Children:
  - {fileID: 4217506278448011305}
  - {fileID: 1927246636466814434}
  - {fileID: 1927246636466814432}
  m_Father: {fileID: 0}
  m_RootOrder: 0
  m_LocalEulerAnglesHint: {x: 0, y: 0, z: 0}
--- !u!114 &876049672133166357
MonoBehaviour:
  m_ObjectHideFlags: 0
  m_CorrespondingSourceObject: {fileID: 0}
  m_PrefabInstance: {fileID: 0}
  m_PrefabAsset: {fileID: 0}
  m_GameObject: {fileID: 1927246636466840006}
  m_Enabled: 1
  m_EditorHideFlags: 0
  m_Script: {fileID: 11500000, guid: 7fa27eea06a143f499844c57ef0379d3, type: 3}
  m_Name: 
  m_EditorClassIdentifier: 
  enemyHealth: 20
  enemyDamage: 0
  ac: {fileID: 0}
  _full: {fileID: 1927246636466840000}
  _damaged: {fileID: 1927246636466840002}
  _particleSystem: {fileID: 4217506278448011306}
--- !u!136 &4429767559582248549
CapsuleCollider:
  m_ObjectHideFlags: 0
  m_CorrespondingSourceObject: {fileID: 0}
  m_PrefabInstance: {fileID: 0}
  m_PrefabAsset: {fileID: 0}
  m_GameObject: {fileID: 1927246636466840006}
  m_Material: {fileID: 0}
  m_IsTrigger: 0
  m_Enabled: 1
  m_Radius: 1.0928283
  m_Height: 2.3526664
  m_Direction: 1
  m_Center: {x: 0, y: 1.1455343, z: -0.026643753}
--- !u!54 &2293187726942398875
Rigidbody:
  m_ObjectHideFlags: 0
  m_CorrespondingSourceObject: {fileID: 0}
  m_PrefabInstance: {fileID: 0}
  m_PrefabAsset: {fileID: 0}
  m_GameObject: {fileID: 1927246636466840006}
  serializedVersion: 2
  m_Mass: 1e+9
  m_Drag: 0
  m_AngularDrag: 0.05
  m_UseGravity: 1
  m_IsKinematic: 1
  m_Interpolate: 0
  m_Constraints: 126
  m_CollisionDetection: 0
--- !u!114 &-7628254726804892160
MonoBehaviour:
  m_ObjectHideFlags: 0
  m_CorrespondingSourceObject: {fileID: 0}
  m_PrefabInstance: {fileID: 0}
  m_PrefabAsset: {fileID: 0}
  m_GameObject: {fileID: 1927246636466840006}
  m_Enabled: 1
  m_EditorHideFlags: 0
  m_Script: {fileID: 11500000, guid: 425b3bb65dc61884493415333c741624, type: 3}
  m_Name: 
  m_EditorClassIdentifier: 
  enemy: {fileID: 4035305373373596457, guid: 7a1e02b4e3e3cde4da6a58f6c596f9b7, type: 3}
  currentEnemy: {fileID: 0}
  spawnRate: 5
  maxEnemies: 0
  spawnRange: 2
  maxDistance: 150
--- !u!1001 &4933252260606624574
PrefabInstance:
  m_ObjectHideFlags: 0
  serializedVersion: 2
  m_Modification:
    m_TransformParent: {fileID: 1927246636466814438}
    m_Modifications:
    - target: {fileID: 9147366467137067797, guid: f07d2d7484b62c444a1afc522065f523,
        type: 3}
      propertyPath: m_Mesh
      value: 
      objectReference: {fileID: 4300000, guid: eb635859440d87849b1d6dee94529499, type: 3}
    - target: {fileID: 9147366467137067797, guid: f07d2d7484b62c444a1afc522065f523,
        type: 3}
      propertyPath: m_Mesh1
      value: 
      objectReference: {fileID: 4300000, guid: 6e5ab4e63a678624daaaae228fa6db9d, type: 3}
    - target: {fileID: 9147366467137067797, guid: f07d2d7484b62c444a1afc522065f523,
        type: 3}
      propertyPath: m_Mesh2
      value: 
      objectReference: {fileID: 4300000, guid: 5e321b1e9321cee4299a32d921c886b4, type: 3}
    - target: {fileID: 9147366467137067797, guid: f07d2d7484b62c444a1afc522065f523,
        type: 3}
      propertyPath: m_Materials.Array.size
      value: 1
      objectReference: {fileID: 0}
    - target: {fileID: 9147366467137067799, guid: f07d2d7484b62c444a1afc522065f523,
        type: 3}
      propertyPath: m_RootOrder
      value: 0
      objectReference: {fileID: 0}
    - target: {fileID: 9147366467137067799, guid: f07d2d7484b62c444a1afc522065f523,
        type: 3}
      propertyPath: m_LocalPosition.x
      value: 0
      objectReference: {fileID: 0}
    - target: {fileID: 9147366467137067799, guid: f07d2d7484b62c444a1afc522065f523,
        type: 3}
      propertyPath: m_LocalPosition.y
      value: 2.136
      objectReference: {fileID: 0}
    - target: {fileID: 9147366467137067799, guid: f07d2d7484b62c444a1afc522065f523,
        type: 3}
      propertyPath: m_LocalPosition.z
      value: 0
      objectReference: {fileID: 0}
    - target: {fileID: 9147366467137067799, guid: f07d2d7484b62c444a1afc522065f523,
        type: 3}
      propertyPath: m_LocalRotation.w
      value: 0.7071068
      objectReference: {fileID: 0}
    - target: {fileID: 9147366467137067799, guid: f07d2d7484b62c444a1afc522065f523,
        type: 3}
      propertyPath: m_LocalRotation.x
      value: -0.7071068
      objectReference: {fileID: 0}
    - target: {fileID: 9147366467137067799, guid: f07d2d7484b62c444a1afc522065f523,
        type: 3}
      propertyPath: m_LocalRotation.y
      value: 0
      objectReference: {fileID: 0}
    - target: {fileID: 9147366467137067799, guid: f07d2d7484b62c444a1afc522065f523,
        type: 3}
      propertyPath: m_LocalRotation.z
      value: 0
      objectReference: {fileID: 0}
    - target: {fileID: 9147366467137067799, guid: f07d2d7484b62c444a1afc522065f523,
        type: 3}
      propertyPath: m_LocalEulerAnglesHint.x
      value: -90
      objectReference: {fileID: 0}
    - target: {fileID: 9147366467137067799, guid: f07d2d7484b62c444a1afc522065f523,
        type: 3}
      propertyPath: m_LocalEulerAnglesHint.y
      value: 0
      objectReference: {fileID: 0}
    - target: {fileID: 9147366467137067799, guid: f07d2d7484b62c444a1afc522065f523,
        type: 3}
      propertyPath: m_LocalEulerAnglesHint.z
      value: 0
      objectReference: {fileID: 0}
    - target: {fileID: 9147366467137067802, guid: f07d2d7484b62c444a1afc522065f523,
        type: 3}
      propertyPath: m_Name
      value: Egg_Particles_Shells
      objectReference: {fileID: 0}
    - target: {fileID: 9147366467137067802, guid: f07d2d7484b62c444a1afc522065f523,
        type: 3}
      propertyPath: m_Layer
      value: 2
      objectReference: {fileID: 0}
    - target: {fileID: 9147366467137067802, guid: f07d2d7484b62c444a1afc522065f523,
        type: 3}
      propertyPath: m_IsActive
      value: 1
      objectReference: {fileID: 0}
    - target: {fileID: 9147366467630307465, guid: f07d2d7484b62c444a1afc522065f523,
        type: 3}
      propertyPath: m_Materials.Array.size
      value: 1
      objectReference: {fileID: 0}
    - target: {fileID: 9147366467630307471, guid: f07d2d7484b62c444a1afc522065f523,
        type: 3}
      propertyPath: m_Layer
      value: 2
      objectReference: {fileID: 0}
    m_RemovedComponents: []
  m_SourcePrefab: {fileID: 100100000, guid: f07d2d7484b62c444a1afc522065f523, type: 3}
--- !u!4 &4217506278448011305 stripped
Transform:
  m_CorrespondingSourceObject: {fileID: 9147366467137067799, guid: f07d2d7484b62c444a1afc522065f523,
    type: 3}
  m_PrefabInstance: {fileID: 4933252260606624574}
  m_PrefabAsset: {fileID: 0}
--- !u!198 &4217506278448011306 stripped
ParticleSystem:
  m_CorrespondingSourceObject: {fileID: 9147366467137067796, guid: f07d2d7484b62c444a1afc522065f523,
    type: 3}
  m_PrefabInstance: {fileID: 4933252260606624574}
  m_PrefabAsset: {fileID: 0}
