%YAML 1.1
%TAG !u! tag:unity3d.com,2011:
--- !u!114 &11400000
MonoBehaviour:
  m_ObjectHideFlags: 0
  m_CorrespondingSourceObject: {fileID: 0}
  m_PrefabInstance: {fileID: 0}
  m_PrefabAsset: {fileID: 0}
  m_GameObject: {fileID: 0}
  m_Enabled: 1
  m_EditorHideFlags: 0
  m_Script: {fileID: 11500000, guid: 1a90055386444b348a9290fb17983d52, type: 3}
  m_Name: 74mmZhnetsCannon
  m_EditorClassIdentifier: 
  weaponName: Zhnets Cannon
  id: 5
  bulletType: {fileID: 3037037468992012164, guid: 579b66e6ef306b04abcb5549c05ef86e,
    type: 3}
  shootForce: 50
  upwardForce: 0
  damage: 5
  timeBetweenShooting: 1
  timeBetweenShots: 0
  spread: 0
  realoadTime: 2
  bulletsPerTap: 1
  magazineSize: 3
  allowButtonHold: 0
  recoilForce: 0
  PhysicalWeapon: {fileID: 2300362026719040147, guid: f4fe5e4cf58ed7a45b14f709b14f141e,
    type: 3}
  shootingSound: {fileID: 8300000, guid: 8524588a69a4f3e40bb597b6221138f1, type: 3}
  weaponImg: {fileID: 21300000, guid: a8fb13456bcadaa40b79e675a9f8d0ef, type: 3}
