%YAML 1.1
%TAG !u! tag:unity3d.com,2011:
--- !u!114 &11400000
MonoBehaviour:
  m_ObjectHideFlags: 0
  m_CorrespondingSourceObject: {fileID: 0}
  m_PrefabInstance: {fileID: 0}
  m_PrefabAsset: {fileID: 0}
  m_GameObject: {fileID: 0}
  m_Enabled: 1
  m_EditorHideFlags: 0
  m_Script: {fileID: 11500000, guid: 1a90055386444b348a9290fb17983d52, type: 3}
  m_Name: SherShen missile launcher
  m_EditorClassIdentifier: 
  weaponName: Missile launcher
  id: 6
  bulletType: {fileID: 3839676691678528054, guid: 8360bcdf5f97bdc44ae3e39b8aca3404,
    type: 3}
  shootForce: 0
  upwardForce: 0
  damage: 4
  timeBetweenShooting: 1
  timeBetweenShots: 0
  spread: 0
  realoadTime: 5
  bulletsPerTap: 1
  magazineSize: 6
  allowButtonHold: 1
  recoilForce: 0
  PhysicalWeapon: {fileID: 4700785154388128047, guid: b69c9cddf03be5d4380ffa91d0aaaa73,
    type: 3}
  shootingSound: {fileID: 8300000, guid: c401d00c96b512e488d2e3bf5d111509, type: 3}
  weaponImg: {fileID: 21300000, guid: 1118d4cec3a76134abe2129ab8dd0baf, type: 3}
