%YAML 1.1
%TAG !u! tag:unity3d.com,2011:
--- !u!78 &1
TagManager:
  serializedVersion: 2
  tags:
  - Bullet
  - FreeCam
  - MechCam
  - Obstacle
  - Enemy
  - RightWeaponCollider
  - LeftWeaponCollider
  - CabinaCollider
  - RightLegCollider
  - LeftLegCollider
  - Mena
  - SpiderBullet
  - Garage
  - Equipment
  layers:
  - Default
  - TransparentFX
  - Ignore Raycast
  - 
  - Water
  - UI
  - 
  - 
  - ShootingLayer
  - Terrain
  - Minimap
  - Light
  - Post Processing
  - 
  - 
  - 
  - 
  - 
  - 
  - 
  - 
  - 
  - 
  - 
  - 
  - 
  - 
  - 
  - 
  - 
  - 
  - 
  m_SortingLayers:
  - name: Default
    uniqueID: 0
    locked: 0
  - name: New Layer
    uniqueID: 578522509
    locked: 0
