%YAML 1.1
%TAG !u! tag:unity3d.com,2011:
--- !u!1 &2699238968184772714
GameObject:
  m_ObjectHideFlags: 0
  m_CorrespondingSourceObject: {fileID: 0}
  m_PrefabInstance: {fileID: 0}
  m_PrefabAsset: {fileID: 0}
  serializedVersion: 6
  m_Component:
  - component: {fileID: 2699238968184772712}
  - component: {fileID: 2699238968184772715}
  m_Layer: 0
  m_Name: AmbientalLightManager
  m_TagString: Untagged
  m_Icon: {fileID: 0}
  m_NavMeshLayer: 0
  m_StaticEditorFlags: 0
  m_IsActive: 1
--- !u!4 &2699238968184772712
Transform:
  m_ObjectHideFlags: 0
  m_CorrespondingSourceObject: {fileID: 0}
  m_PrefabInstance: {fileID: 0}
  m_PrefabAsset: {fileID: 0}
  m_GameObject: {fileID: 2699238968184772714}
  m_LocalRotation: {x: 0, y: 0, z: 0, w: 1}
  m_LocalPosition: {x: 265.83725, y: 66.355255, z: 334.75113}
  m_LocalScale: {x: 1, y: 1, z: 1}
  m_Children: []
  m_Father: {fileID: 0}
  m_RootOrder: 0
  m_LocalEulerAnglesHint: {x: 0, y: 0, z: 0}
--- !u!114 &2699238968184772715
MonoBehaviour:
  m_ObjectHideFlags: 0
  m_CorrespondingSourceObject: {fileID: 0}
  m_PrefabInstance: {fileID: 0}
  m_PrefabAsset: {fileID: 0}
  m_GameObject: {fileID: 2699238968184772714}
  m_Enabled: 1
  m_EditorHideFlags: 0
  m_Script: {fileID: 11500000, guid: 9420f74a9a2f1a941851937f39fe85b6, type: 3}
  m_Name: 
  m_EditorClassIdentifier: 
  daySky: {fileID: 2100000, guid: 897a1f4cf52565044acf6fe1e19b0504, type: 2}
  nightSky: {fileID: 2100000, guid: 2039a0ad0a9d05549928b70362f54902, type: 2}
  dirLight: {fileID: 0}
