%YAML 1.1
%TAG !u! tag:unity3d.com,2011:
--- !u!1 &547732955283160720
GameObject:
  m_ObjectHideFlags: 0
  m_CorrespondingSourceObject: {fileID: 0}
  m_PrefabInstance: {fileID: 0}
  m_PrefabAsset: {fileID: 0}
  serializedVersion: 6
  m_Component:
  - component: {fileID: 547732955283160721}
  - component: {fileID: 547732955283160726}
  m_Layer: 0
  m_Name: GameManager
  m_TagString: Untagged
  m_Icon: {fileID: 0}
  m_NavMeshLayer: 0
  m_StaticEditorFlags: 0
  m_IsActive: 1
--- !u!4 &547732955283160721
Transform:
  m_ObjectHideFlags: 0
  m_CorrespondingSourceObject: {fileID: 0}
  m_PrefabInstance: {fileID: 0}
  m_PrefabAsset: {fileID: 0}
  m_GameObject: {fileID: 547732955283160720}
  m_LocalRotation: {x: 0, y: 0, z: 0, w: 1}
  m_LocalPosition: {x: 0, y: 0, z: 0}
  m_LocalScale: {x: 1, y: 1, z: 1}
  m_Children: []
  m_Father: {fileID: 0}
  m_RootOrder: 0
  m_LocalEulerAnglesHint: {x: 0, y: 0, z: 0}
--- !u!114 &547732955283160726
MonoBehaviour:
  m_ObjectHideFlags: 0
  m_CorrespondingSourceObject: {fileID: 0}
  m_PrefabInstance: {fileID: 0}
  m_PrefabAsset: {fileID: 0}
  m_GameObject: {fileID: 547732955283160720}
  m_Enabled: 1
  m_EditorHideFlags: 0
  m_Script: {fileID: 11500000, guid: 02d2094cbc2baff448a85ca5a866a0a2, type: 3}
  m_Name: 
  m_EditorClassIdentifier: 
  canExtract: 0
  enemiesKilled: 0
  leftWeaponId: 1
  rightWeaponId: 2
  leftWeapon: {fileID: 0}
  rightWeapon: {fileID: 0}
  weaponList:
  - {fileID: 11400000, guid: c6676b6edf955c3409c75abc05d87ca3, type: 2}
  - {fileID: 11400000, guid: cc736c9879b2e6e49b64ca07186a4263, type: 2}
  - {fileID: 11400000, guid: 613a3b30ae13c694e8a81d76ff4356d7, type: 2}
  - {fileID: 11400000, guid: 95cc49f8be009dd4584e123617ab9952, type: 2}
  - {fileID: 11400000, guid: 47c3bce6ea778044fb83023d0487f61e, type: 2}
  - {fileID: 11400000, guid: eda0da42ffbda934fbce58709b1d1ea1, type: 2}
  player: {fileID: 0}
  nhulNum: 0
  currentState: 0
  hms: {fileID: -4013912451040366420, guid: c586175f677e6f842bd821e4550bd6f2, type: 3}
  temperature: 0
  tempIncrease: 0
  maxTemperature: 0
  minTemperature: 0
  maxTempDay: 80
  maxTempNight: 100
  minTempDay: 20
  minTempNight: 10
